c3_v3_acopio_v2
…
Los resultados son relativamente acordes a la evidencia sugerida por la literatura, donde el porcentaje de individuos sobrecalificados disminuye conforme aumenta la edad de la muestra.

tbl_inc_edad

# A tibble: 39 × 5
# Groups:   edad [10]
    edad edu_mismatch_obj     n    tot     prop
   <int>            <dbl> <int>  <dbl>    <dbl>
 1    25                0   571 165771 0.421   
 2    25                1   816 221121 0.562   
 3    25                2     2    453 0.00115 
 4    25               NA    25   6032 0.0153  
 5    26                0   619 187076 0.457   
 6    26                1   786 220196 0.538   
 7    26                2     1    142 0.000347
 8    26               NA    15   2157 0.00527 
 9    27                0   657 194436 0.453   
10    27                1   861 229175 0.534   
# ℹ 29 more rows
…
df_6 <- df_4 |> 
  group_by(campo_espec, over_obj) |> 
  summarise(tot = sum(fac_tri)) |> 
  mutate(prop = tot / sum(tot)) |> 
  ungroup() |>
  filter(over_obj == 1) |> 
  arrange(desc(prop))

`summarise()` has grouped output by 'campo_espec'. You can override using the
`.groups` argument.

df_6

# A tibble: 29 × 4
   campo_espec over_obj    tot  prop
   <chr>          <dbl>  <dbl> <dbl>
 1 101                1 120809 0.909
 2 104                1   3569 0.900
 3 081                1  44682 0.737
 4 102                1   5443 0.712
 5 042                1 384434 0.695
 6 999                1  11090 0.641
 7 071                1 346133 0.620
 8 041                1 284888 0.568
 9 031                1 170938 0.549
10 032                1  34433 0.523
# ℹ 19 more rows
…
Mientras que 17 son menores a la incidencia general

Por último,

df_4 |> 
  group_by(campo_espec, over_obj, campo_detal) |> 
  summarise(tot = sum(fac_tri)) |> 
  mutate(prop = tot / sum(tot)) |> 
  arrange(desc(prop), .by_group = TRUE)

`summarise()` has grouped output by 'campo_espec', 'over_obj'. You can override
using the `.groups` argument.

# A tibble: 278 × 5
# Groups:   campo_espec, over_obj [83]
   campo_espec over_obj campo_detal   tot    prop
   <chr>          <dbl> <chr>       <dbl>   <dbl>
 1 011                0 0115        63455 0.543  
 2 011                0 0111        43944 0.376  
 3 011                0 0113         5229 0.0448 
 4 011                0 0112         2507 0.0215 
 5 011                0 0110         1272 0.0109 
 6 011                0 0114          387 0.00331
 7 011                1 0111        50747 0.550  
 8 011                1 0115        34976 0.379  
 9 011                1 0112         2821 0.0306 
10 011                1 0113         2627 0.0285 
# ℹ 268 more rows
…
Me percate que tenía asignado incorrectamente los valores que identifica cada región del país

El cambio se hace en “C:/Prog/tesis/scripts/3_construccion_variables_v2.R” y se guardan en “C:/Prog/tesis/scripts/3_construccion_variables_v3.R”. Asimismo, se modifica “C:/Prog/tesis/scripts/6_cuadros_v3.R” el cambio de archivo. Se vuelve a ejecutar todo el código de este archivo

Después de aplicar los cambios. Se observa que la región sur presenta la mayor incidencia: 59.9%. Mientras que la región centro la menor incidencia: 46.2%.

POR ESTADOS

tbl_inc_estados |> 
  filter(edu_mismatch_obj == 1) |> 
  arrange(desc(prop))

# A tibble: 32 × 5
# Groups:   ent [32]
   ent   edu_mismatch_obj     n    tot  prop
   <chr>            <dbl> <int>  <dbl> <dbl>
 1 12                   1   163  41318 0.637
 2 27                   1   266  44468 0.620
 3 23                   1   238  48014 0.618
 4 18                   1   296  26647 0.616
 5 30                   1   309 117148 0.611
 6 25                   1   305  90695 0.608
 7 17                   1   200  41958 0.605
 8 16                   1   212  87706 0.601
 9 28                   1   327  77029 0.594
10 29                   1   205  27712 0.591
# ℹ 22 more rows
…
¿Cuántos están por encima o por debajo de la incidencia general?

df_7 <- tribble(
  ~ent, ~edu_mismatch_obj, ~n, ~tot, ~prop,
  "general", 1, 1, 1, 0.509449336
)

tbl_inc_estados |> 
  ungroup() |> 
  add_row(df_7) |> 
  filter(edu_mismatch_obj == 1) |> 
  filter(prop >= prop[ent == "general"])

# A tibble: 24 × 5
   ent   edu_mismatch_obj     n   tot  prop
   <chr>            <dbl> <dbl> <dbl> <dbl>
 1 10                   1   259 34874 0.530
 2 11                   1   222 89155 0.546
 3 12                   1   163 41318 0.637
 4 13                   1   204 46642 0.569
 5 16                   1   212 87706 0.601
 6 17                   1   200 41958 0.605
 7 18                   1   296 26647 0.616
 8 2                    1   290 71615 0.548
 9 20                   1   221 50843 0.580
10 21                   1   257 94780 0.512
# ℹ 14 more rows
…
Ahora se hace a nivel estatal

ocupada |> 
  mutate(fac_tri = as.double(fac_tri)) |> 
  group_by(ent) |> 
  summarise(
    pcco = sum(fac_tri[tcco != "0"]),
    po = sum(fac_tri),
    tcco = pcco / po
  )

# A tibble: 32 × 4
   ent      pcco      po  tcco
   <chr>   <dbl>   <dbl> <dbl>
 1 1      142276  652132 0.218
 2 10     283681  860551 0.330
 3 11    1014042 2850322 0.356
 4 12     495084 1507245 0.328
 5 13     461209 1457012 0.317
 6 14     653556 3874934 0.169
 7 15    3407651 8152117 0.418
 8 16     743940 2258881 0.329
 9 17     236831  845616 0.280
10 18     162355  619858 0.262
# ℹ 22 more rows
…
stats::cor(til1_estados_over$tasa, til1_estados_over$prop)

[1] 0.5515643

unir_tbl_tasa_over <- function(datos1, datos2, llave){
  datos1 |> 
    filter(edu_mismatch_obj == 1) |> 
    left_join(datos2, by = join_by({{  llave  }}))
}

Se valida

unir_tbl_tasa_over(tbl_inc_estados, til1_estados, ent)

# A tibble: 32 × 8
# Groups:   ent [32]
   ent   edu_mismatch_obj     n    tot  prop numerador denominador  tasa
   <chr>            <dbl> <int>  <dbl> <dbl>     <dbl>       <dbl> <dbl>
 1 1                    1   193  28429 0.467    273102      652132 0.419
 2 10                   1   259  34874 0.530    440602      860551 0.512
 3 11                   1   222  89155 0.546   1558997     2850322 0.547
 4 12                   1   163  41318 0.637   1146195     1507245 0.760
 5 13                   1   204  46642 0.569   1031145     1457012 0.708
 6 14                   1   215 143075 0.470   1754979     3874934 0.453
 7 15                   1   279 306218 0.468   4553459     8152117 0.559
 8 16                   1   212  87706 0.601   1570417     2258881 0.695
 9 17                   1   200  41958 0.605    548809      845616 0.649
10 18                   1   296  26647 0.616    370417      619858 0.598
# ℹ 22 more rows

De momento me quedo con las dos tasas calculadas:

TCCO

TIL1

tcco_estados_over

# A tibble: 32 × 8
# Groups:   ent [32]
   ent   edu_mismatch_obj     n    tot  prop    pcco      po  tcco
   <chr>            <dbl> <int>  <dbl> <dbl>   <dbl>   <dbl> <dbl>
 1 1                    1   193  28429 0.467  142276  652132 0.218
 2 10                   1   259  34874 0.530  283681  860551 0.330
 3 11                   1   222  89155 0.546 1014042 2850322 0.356
 4 12                   1   163  41318 0.637  495084 1507245 0.328
 5 13                   1   204  46642 0.569  461209 1457012 0.317
 6 14                   1   215 143075 0.470  653556 3874934 0.169
 7 15                   1   279 306218 0.468 3407651 8152117 0.418
 8 16                   1   212  87706 0.601  743940 2258881 0.329
 9 17                   1   200  41958 0.605  236831  845616 0.280
10 18                   1   296  26647 0.616  162355  619858 0.262
# ℹ 22 more rows

til1_estados_over

# A tibble: 32 × 8
# Groups:   ent [32]
   ent   edu_mismatch_obj     n    tot  prop numerador denominador  tasa
   <chr>            <dbl> <int>  <dbl> <dbl>     <dbl>       <dbl> <dbl>
 1 1                    1   193  28429 0.467    273102      652132 0.419
 2 10                   1   259  34874 0.530    440602      860551 0.512
 3 11                   1   222  89155 0.546   1558997     2850322 0.547
 4 12                   1   163  41318 0.637   1146195     1507245 0.760
 5 13                   1   204  46642 0.569   1031145     1457012 0.708
 6 14                   1   215 143075 0.470   1754979     3874934 0.453
 7 15                   1   279 306218 0.468   4553459     8152117 0.559
 8 16                   1   212  87706 0.601   1570417     2258881 0.695
 9 17                   1   200  41958 0.605    548809      845616 0.649
10 18                   1   296  26647 0.616    370417      619858 0.598
# ℹ 22 more rows
…
