c3-3_borrador-2-v3-4
…
est_descrip_jov_reg <- pmap(argumentos, calcular_descriptivos_map) |> 
  list_rbind()

Se valida

prop_jov_reg

# A tibble: 62 × 6
   poblacion   grupo     valor     n     tot    prop
   <chr>       <chr>     <chr> <int>   <dbl>   <dbl>
 1 jovenes_reg educacion 6       135   35660 0.0178 
 2 jovenes_reg educacion 7      7109 1834237 0.917  
 3 jovenes_reg educacion 8       426  118014 0.0590 
 4 jovenes_reg educacion 9        38   11555 0.00578
 5 jovenes_reg over_obj  0      3387  898406 0.449  
 6 jovenes_reg over_obj  1      4321 1101060 0.551  
 7 jovenes_reg under_obj 0      7699 1996139 0.998  
 8 jovenes_reg under_obj 1         9    3327 0.00166
 9 jovenes_reg mujer     0      3700  952398 0.476  
10 jovenes_reg mujer     1      4008 1047068 0.524  
# ℹ 52 more rows
…
